%YAML 1.1
%TAG !u! tag:unity3d.com,2011:
--- !u!114 &11400000
MonoBehaviour:
  m_ObjectHideFlags: 0
  m_CorrespondingSourceObject: {fileID: 0}
  m_PrefabInstance: {fileID: 0}
  m_PrefabAsset: {fileID: 0}
  m_GameObject: {fileID: 0}
  m_Enabled: 1
  m_EditorHideFlags: 0
  m_Script: {fileID: 11500000, guid: 643251e9287a049a798c0c619f6f623b, type: 3}
  m_Name: aliveStatusColor
  m_EditorClassIdentifier: 
  _developerDescription: 
  _id: 
  _value: {r: 0.69764215, g: 0.9645703, b: 0.2991677, a: 1}
  _changed: {fileID: 11400000, guid: b30cd9ea407ee484aa765fa4f0a53293, type: 2}
  _changedWithHistory: {fileID: 0}
  _triggerChangedOnOnEnable: 0
  _triggerChangedWithHistoryOnOnEnable: 0
  _oldValue: {r: 0.6878508, g: 0.9510326, b: 0.2949689, a: 1}
  _initialValue: {r: 0.69803923, g: 0.9647059, b: 0.29803923, a: 1}
  _preChangeTransformers: []
